…
撮影データ（detection_data）：各行に１本の動画情報が入力されたデータシートです．合計で1000回の撮影があった場合は，1000行の表（変数名も含めれば1001行）になります．最低限必要なのは，撮影された地点ID，撮影時刻，動物の種名，各動画における有効範囲の通過回数，滞在時間の測定値1，滞在時間測定における打ち切りの有無です．欠損値にはNAを入力します2．カメラの点検に複数回赴いた場合，調査回IDの列を入力しておくと，以下で説明するカメラ稼働時間の集計用の関数を使えます．

カメラ地点データ（station_data）：各行に各カメラ地点の情報が入力されたデータです．100地点にカメラを設置した場合，100行の表（変数名も含めれば101行）になります．最低限必要なのは，設置点IDです3．状況に応じて，設置点の座標，カメラの稼働開始日時（設置日時）や終了日時（回収日，もしくは，最後の撮影日時），各地点の環境共変量などが入力されます．

　RESTモデルは，対象種が有効撮影範囲を何回通過したかをすべての動画に対して計測しなければいけません．一方，REST-RADモデルは，この判定を一部の動画に対して行うだけで密度推定できます4．２つのモデルの違いはこの点だけなので，REST用の元データにREST-RADモデルを適用することは可能です（その反対は不可能）．

　以下，パッケージに含まれているexampleデータを使って説明します．パッケージを開いて，使える状態にしましょう．

library(ctrest)
# library(devtools)
# load_all()

detection_data # 撮影データの例

## # A tibble: 1,331 × 7
##    Station DateTime            Term  Species      y  Stay  Cens
##    <chr>   <dttm>              <chr> <chr>    <int> <dbl> <dbl>
##  1 ST001   2024-05-07 10:26:00 term1 Surveyor    NA  NA      NA
##  2 ST001   2024-05-08 12:37:33 term1 A            0   1.2     0
##  3 ST001   2024-05-15 17:20:41 term1 A            0   1.8     0
##  4 ST001   2024-05-19 06:14:59 term1 A            0   0.3     0
##  5 ST001   2024-05-20 11:17:50 term1 A            0   1.8     0
##  6 ST001   2024-05-21 05:54:22 term1 A            1   2.7     0
##  7 ST001   2024-05-22 06:00:55 term1 A            2   3.9     0
##  8 ST001   2024-05-22 17:15:18 term1 A            1   1.8     0
##  9 ST001   2024-06-10 12:00:00 term2 Surveyor    NA  NA      NA
## 10 ST001   2024-06-14 13:05:42 term2 A            0   0.5     0
## # ℹ 1,321 more rows

この例では，StationID（地点ID），DateTime（撮影日時），Term（調査回），Species（撮影された動物種名），y（有効範囲に入った回数），Stay（有効範囲内の滞在時間），Cens（滞在時間の打ち切りの有=1，無=0）が入力されています．

station_data # カメラ設置点データ

## # A tibble: 100 × 3
##    Station      x1 x2   
##    <chr>     <dbl> <chr>
##  1 ST001   -0.977  B    
##  2 ST002    1.23   A    
##  3 ST003    0.0338 C    
##  4 ST004   -1.55   A    
##  5 ST005    0.674  B    
##  6 ST006   -0.443  C    
##  7 ST007   -0.530  C    
##  8 ST008    0.506  C    
##  9 ST009   -0.588  C    
## 10 ST010    1.41   C    
## # ℹ 90 more rows
…
